<svg xmlns="http://www.w3.org/2000/svg" xmlns:xlink="http://www.w3.org/1999/xlink" version="1.1" width="81.42744388497718" height="69.18209018624671" viewBox="0.3525240902262565 0.8588946346598503 81.42744388497718 69.18209018624671">
  <!-- Exported by Scratch - http://scratch.mit.edu/ -->
  <g id="ID0.6519905929453671">
    <path id="ID0.2171387574635446" fill="#703D00" stroke="none" d="M 46.6592 51.1722 C 52.772 51.1722 58.3112 52.1781 62.3223 53.8041 C 66.3327 55.4293 68.8155 57.6747 68.8155 60.1521 C 68.8155 62.6295 66.3327 64.8749 62.3223 66.5001 C 58.3112 68.1261 52.772 69.132 46.6592 69.132 C 40.5465 69.132 35.0072 68.1261 30.9962 66.5001 C 26.9858 64.8749 24.5029 62.6295 24.5029 60.1521 C 24.5029 57.6747 26.9858 55.4293 30.9962 53.8041 C 35.0072 52.1781 40.5465 51.1722 46.6592 51.1722 Z " stroke-width="0.7122527288819072"/>
    <path id="ID0.43220555409789085" fill="#A85B00" stroke="#A85B00" stroke-width="1.7104646919560231" stroke-linecap="round" d="M 40.2103 22.8364 C 49.644 22.689 59.1243 22.8177 68.5454 23.2437 C 70.9038 23.3512 74.4899 21.9543 74.3381 24.0582 C 73.731 32.4696 69.8081 40.8728 66.3899 48.9413 C 64.5003 53.5213 63.622 60.3623 58.4867 62.4621 C 49.9942 65.7087 39.7523 64.5579 30.5558 63.2766 C 27.2131 62.7887 25.1223 60.0007 23.2812 57.8194 C 20.1818 54.1566 17.9366 49.9098 15.9617 46.0091 C 12.6297 39.3473 7.8168 32.6634 6.8011 25.7279 C 6.5244 23.8382 10.3351 23.9441 12.6836 23.6509 C 21.7652 22.5806 31.1449 22.9765 40.2103 22.8364 Z "/>
    <path id="ID0.8022473398596048" fill="#703D00" stroke="none" d="M 42.1514 25.6464 C 50.7632 25.6464 58.5674 26.5913 64.2185 28.1168 C 69.8695 29.6432 73.3673 31.7512 73.3673 34.0766 C 73.3673 36.402 69.8695 38.5099 64.2185 40.0363 C 58.5674 41.5619 50.7632 42.5067 42.1514 42.5067 C 33.5395 42.5067 25.7353 41.5619 20.0843 40.0363 C 14.4332 38.5099 10.9354 36.402 10.9354 34.0766 C 10.9354 31.7512 14.4332 29.6432 20.0843 28.1168 C 25.7353 26.5913 33.5395 25.6464 42.1514 25.6464 Z " stroke-width="0.9235221105224776"/>
    <path id="ID0.818717781919986" fill="#F0C444" stroke="#A85B00" stroke-width="1.817962073453737" stroke-linecap="round" d="M 41.2471 1.7804 C 52.3422 2.097 63.0258 6.9209 72.5706 12.0184 C 76.8177 14.602 81.4006 19.3347 80.8212 23.8266 C 80.2398 28.309 76.3649 30.625 69.1667 32.9643 C 61.9676 35.3044 52.0266 36.7532 41.0552 36.7532 C 30.0839 36.7532 20.1429 35.3044 12.9437 32.9643 C 5.7456 30.625 0.8461 28.4191 1.2893 23.8266 C 1.9369 17.7371 8.7858 13.1523 14.3847 9.7815 C 22.5662 5.5495 31.9853 1.5137 41.2471 1.7804 Z "/>
  </g>
</svg>