<?xml version="1.0" encoding="UTF-8" standalone="no"?>
<!-- Created with Inkscape (http://www.inkscape.org/) -->

<svg
   width="52.98262"
   height="52.982616"
   viewBox="0 0 52.98262 52.982616"
   version="1.1"
   id="svg1"
   xmlns:inkscape="http://www.inkscape.org/namespaces/inkscape"
   xmlns:sodipodi="http://sodipodi.sourceforge.net/DTD/sodipodi-0.dtd"
   xmlns="http://www.w3.org/2000/svg"
   xmlns:svg="http://www.w3.org/2000/svg">
  <sodipodi:namedview
     id="namedview1"
     pagecolor="#ffffff"
     bordercolor="#000000"
     borderopacity="0.25"
     inkscape:showpageshadow="2"
     inkscape:pageopacity="0.0"
     inkscape:pagecheckerboard="0"
     inkscape:deskcolor="#d1d1d1"
     inkscape:document-units="px">
    <inkscape:page
       x="0"
       y="0"
       width="52.98262"
       height="52.982616"
       id="page2"
       margin="0"
       bleed="0" />
  </sodipodi:namedview>
  <defs
     id="defs1" />
  <g
     inkscape:label="Lapis 1"
     inkscape:groupmode="layer"
     id="layer1"
     transform="translate(-81.356186,-50.70013)">
    <g
       id="g38"
       transform="translate(3.894457,-219.74936)">
      <path
         style="fill:#c7e3f1;fill-opacity:1;stroke:#ffffff;stroke-width:8.33217;stroke-linecap:round;stroke-linejoin:round;stroke-miterlimit:4;stroke-dasharray:none;stroke-opacity:1;paint-order:fill markers stroke"
         id="path36"
         sodipodi:type="arc"
         sodipodi:cx="103.95303"
         sodipodi:cy="296.9408"
         sodipodi:rx="22.32461"
         sodipodi:ry="22.32461"
         sodipodi:start="6.0968714"
         sodipodi:end="6.0965223"
         sodipodi:open="true"
         sodipodi:arc-type="arc"
         d="m 125.89129,292.80543 a 22.32461,22.32461 0 0 1 -17.80098,26.07326 22.32461,22.32461 0 0 1 -26.074808,-17.7987 22.32461,22.32461 0 0 1 17.796425,-26.07636 22.32461,22.32461 0 0 1 26.077913,17.79414" />
      <path
         style="fill:#000000;fill-opacity:1;stroke:#000000;stroke-width:5;stroke-linecap:round;stroke-linejoin:round;stroke-miterlimit:4;stroke-dasharray:none;stroke-opacity:1;paint-order:fill markers stroke"
         id="path26"
         sodipodi:type="arc"
         sodipodi:cx="103.95303"
         sodipodi:cy="296.9408"
         sodipodi:rx="22.32461"
         sodipodi:ry="22.32461"
         sodipodi:start="6.0968714"
         sodipodi:end="6.0965223"
         sodipodi:open="true"
         sodipodi:arc-type="arc"
         d="m 125.89129,292.80543 a 22.32461,22.32461 0 0 1 -17.80098,26.07326 22.32461,22.32461 0 0 1 -26.074808,-17.7987 22.32461,22.32461 0 0 1 17.796425,-26.07636 22.32461,22.32461 0 0 1 26.077913,17.79414" />
      <path
         style="fill:#81e0c9;fill-opacity:1;stroke:none;stroke-width:8.33217;stroke-linecap:round;stroke-linejoin:round;stroke-miterlimit:4;stroke-dasharray:none;stroke-opacity:1;paint-order:fill markers stroke"
         id="path13608-7"
         sodipodi:type="arc"
         sodipodi:cx="103.95303"
         sodipodi:cy="296.9408"
         sodipodi:rx="22.32461"
         sodipodi:ry="22.32461"
         sodipodi:start="6.0968714"
         sodipodi:end="6.0965223"
         sodipodi:open="true"
         sodipodi:arc-type="arc"
         d="m 125.89129,292.80543 a 22.32461,22.32461 0 0 1 -17.80098,26.07326 22.32461,22.32461 0 0 1 -26.074808,-17.7987 22.32461,22.32461 0 0 1 17.796425,-26.07636 22.32461,22.32461 0 0 1 26.077913,17.79414" />
      <path
         style="fill:none;fill-opacity:1;stroke:none;stroke-width:8.33217;stroke-linecap:round;stroke-linejoin:round;stroke-miterlimit:4;stroke-dasharray:none;stroke-opacity:1;paint-order:fill markers stroke"
         id="path31"
         sodipodi:type="arc"
         sodipodi:cx="103.95303"
         sodipodi:cy="296.9408"
         sodipodi:rx="22.32461"
         sodipodi:ry="22.32461"
         sodipodi:start="6.0968714"
         sodipodi:end="6.0965223"
         sodipodi:open="true"
         sodipodi:arc-type="arc"
         d="m 125.89129,292.80543 a 22.32461,22.32461 0 0 1 -17.80098,26.07326 22.32461,22.32461 0 0 1 -26.074808,-17.7987 22.32461,22.32461 0 0 1 17.796425,-26.07636 22.32461,22.32461 0 0 1 26.077913,17.79414" />
    </g>
  </g>
</svg>
